<rss version="2.0">
  <channel>
    <title>My Blog</title>
    <link>https://mycoolblog.com</link>
    <description>A blog about cool stuff</description>
    <item>
      <title>First test</title>
      <description>&lt;h1&gt;addwž&lt;/h1&gt;&#xA;&#xA;&lt;h2&gt;wdwdw&lt;/h2&gt;&#xA;</description>
      <link>https://mycoolblog.com/First%20test.md.html</link>
      <guid>https://mycoolblog.com/First%20test.md.html</guid>
      <pubDate>Tue, 21 Feb 2023 16:50:07 CET</pubDate>
    </item>
  </channel>
</rss>